ST 558 Homework 5
…
# A tibble: 2 × 5
  HeartDisease mean_max_hr mean_age mean_bp mean_chol
  <fct>              <dbl>    <dbl>   <dbl>     <dbl>
1 0                   148.     50.6    130.      227.
2 1                   128.     55.9    134.      176.

heart_data

# A tibble: 918 × 11
     Age Sex   ChestPainType RestingBP Cholesterol FastingBS RestingECG MaxHR
   <dbl> <chr> <chr>             <dbl>       <dbl> <fct>     <chr>      <dbl>
 1    40 M     ATA                 140         289 0         Normal       172
 2    49 F     NAP                 160         180 0         Normal       156
 3    37 M     ATA                 130         283 0         ST            98
 4    48 F     ASY                 138         214 0         Normal       108
 5    54 M     NAP                 150         195 0         Normal       122
 6    39 M     NAP                 120         339 0         Normal       170
 7    45 F     ATA                 130         237 0         Normal       170
 8    54 M     ATA                 110         208 0         Normal       142
 9    37 M     ASY                 140         207 0         Normal       130
10    48 F     ATA                 120         284 0         Normal       120
# ℹ 908 more rows
# ℹ 3 more variables: ExerciseAngina <chr>, Oldpeak <dbl>, HeartDisease <fct>
…
